results/experiments.log
Script started on 2026-03-09 22:49:50-07:00 [TERM="xterm-256color" TTY="/dev/pts/3" COLUMNS="179" LINES="46"]
[?2004h(base) ]0;computer_name: project_path[01;32mcomputer_name[00m:[01;34mproject_path[00m$ exitmake ablation W_BITS=2 TRACE_BITS=2 TRIPLET_EN=0 LEAK_EN=0 SPIKE_WHITE=0000000000001000000000000010000000001000 SPIKE_BLACK=0000100001000010000100001000010000100010
[?2004l
iverilog -DW_BITS=2 -DTRACE_BITS=2 -DTRIPLET_EN=0 -DMODE=0 -DLEAK_EN=0 -DSYMMETRIC=1 -DNUM_EPOCHS=1 "-DSPIKE_WHITE=40'b0000000000001000000000000010000000001000" "-DSPIKE_BLACK=40'b0000100001000010000100001000010000100010" -o dynamic_snn_ablation rtl/snn_dynamic.v tb/dynamic_snn_tb.v
vvp dynamic_snn_ablation
VCD info: dumpfile dynamic_snn.vcd opened for output.
============================================================
CONFIG: W_BITS=2  TRACE_BITS=2  TRIPLET_EN=0  MODE=0  LEAK_EN=0  SYMMETRIC=1
CONFIG: NUM_STEPS=40 (from pattern length)  NUM_EPOCHS=1
============================================================
============================================================
Train '0' epoch
============================================================
BEFORE W1: 1 0 0 1 2 0 3 2 3 0 2 2 1 3 3 1 3 0 0 2 3 1 1 0 1
BEFORE W2: 0 2 3 0 1 2 0 2 0 0 1 2 3 1 2 0 1 1 0 1 2 3 1 3 0
AFTER W1: 3 3 3 3 3 3 0 0 0 3 3 0 3 0 3 3 0 0 0 3 3 3 3 3 3
AFTER W2: 0 2 3 0 1 2 0 2 0 0 1 2 3 1 2 0 1 1 0 1 2 3 1 3 0
Firing counts: Neuron 1 = 3, Neuron 2 = 0

============================================================
Train '1' epoch
============================================================
BEFORE W1: 3 3 3 3 3 3 0 0 0 3 3 0 3 0 3 3 0 0 0 3 3 3 3 3 3
BEFORE W2: 0 2 3 0 1 2 0 2 0 0 1 2 3 1 2 0 1 1 0 1 2 3 1 3 0
AFTER W1: 3 0 0 3 3 3 3 0 3 3 3 3 0 3 3 3 3 0 3 3 3 0 0 0 3
AFTER W2: 3 0 0 3 3 3 3 0 3 3 3 3 0 3 3 3 3 0 3 3 3 0 0 0 3
Firing counts: Neuron 1 = 2, Neuron 2 = 2

============================================================
Test '0'
============================================================
BEFORE W1: 3 0 0 3 3 3 3 0 3 3 3 3 0 3 3 3 3 0 3 3 3 0 0 0 3
BEFORE W2: 3 0 0 3 3 3 3 0 3 3 3 3 0 3 3 3 3 0 3 3 3 0 0 0 3
AFTER W1: 3 0 0 3 3 3 3 0 3 3 3 3 0 3 3 3 3 0 3 3 3 0 0 0 3
AFTER W2: 3 0 0 3 3 3 3 0 3 3 3 3 0 3 3 3 3 0 3 3 3 0 0 0 3
Firing counts: Neuron 1 = 3, Neuron 2 = 3

============================================================
Test '1'
============================================================
BEFORE W1: 3 0 0 3 3 3 3 0 3 3 3 3 0 3 3 3 3 0 3 3 3 0 0 0 3
BEFORE W2: 3 0 0 3 3 3 3 0 3 3 3 3 0 3 3 3 3 0 3 3 3 0 0 0 3
AFTER W1: 3 0 0 3 3 3 3 0 3 3 3 3 0 3 3 3 3 0 3 3 3 0 0 0 3
AFTER W2: 3 0 0 3 3 3 3 0 3 3 3 3 0 3 3 3 3 0 3 3 3 0 0 0 3
Firing counts: Neuron 1 = 1, Neuron 2 = 1

============================================================
Simulation complete.
============================================================
[?2004h(base) ]0;computer_name: project_path[01;32mcomputer_name[00m:[01;34mproject_path[00m$ [7mmake plot-dynamic W_BITS=2 TRACE_BITS=2 TRIPLET_EN=0 LEAK_E[27m[7mN[27m[7m=0 SPIKE_WHITE=0000000000001000000000000010000000001000 SPIKE_BLACK=0000100001000010000100001000010000100010[27m[A
(base) ]0;computer_name: project_path[01;32mcomputer_name[00m:[01;34mproject_path[00m$ make plot-dynamic W_BITS=2 TRACE_BITS=2 TRIPLET_EN=0 LEAK_EN=0 SPIKE_WHITE=0000000000001000000000000010000000001000 SPIKE_BLACK=0000100001000010000100001000010000100010
[?2004l
python3 viz/plot_weights.py dynamic --make-args W_BITS=2 TRACE_BITS=2 TRIPLET_EN=0 MODE=0 LEAK_EN=0 SYMMETRIC=1 NUM_EPOCHS=1 SPIKE_BLACK=0000100001000010000100001000010000100010 SPIKE_WHITE=0000000000001000000000000010000000001000 OUT_PATH=viz/out.png
Saved to weight_heatmaps_dynamic.png
[?2004h(base) ]0;computer_name: project_path[01;32mcomputer_name[00m:[01;34mproject_path[00m$ [7mmake ablation TRIPLET_EN=0 SPIKE_WHITE=00000000000010000000[27m[7m0[27m[7m0000010000000001000 SPIKE_BLACK=0000100001000010000100001000010000100010[27m[A
(base) ]0;computer_name: project_path[01;32mcomputer_name[00m:[01;34mproject_path[00m$ make ablation TRIPLET_EN=0 SPIKE_WHITE=0000000000001000000000000010000000001000 SPIKE_BLACK=0000100001000010000100001000010000100010
[?2004l
iverilog -DW_BITS=4 -DTRACE_BITS=4 -DTRIPLET_EN=0 -DMODE=0 -DLEAK_EN=1 -DSYMMETRIC=1 -DNUM_EPOCHS=1 "-DSPIKE_WHITE=40'b0000000000001000000000000010000000001000" "-DSPIKE_BLACK=40'b0000100001000010000100001000010000100010" -o dynamic_snn_ablation rtl/snn_dynamic.v tb/dynamic_snn_tb.v
vvp dynamic_snn_ablation
VCD info: dumpfile dynamic_snn.vcd opened for output.
============================================================
CONFIG: W_BITS=4  TRACE_BITS=4  TRIPLET_EN=0  MODE=0  LEAK_EN=1  SYMMETRIC=1
CONFIG: NUM_STEPS=40 (from pattern length)  NUM_EPOCHS=1
============================================================
============================================================
Train '0' epoch
============================================================
BEFORE W1: 4 0 0 4 8 0 12 8 12 0 8 8 4 12 12 4 12 0 0 8 12 4 4 0 4
BEFORE W2: 0 8 12 0 4 8 0 8 0 0 4 8 12 4 8 0 4 4 0 4 8 12 4 12 0
AFTER W1: 2 0 0 2 6 0 15 12 15 0 6 12 2 15 10 2 15 4 4 6 10 2 2 0 2
AFTER W2: 0 8 12 0 4 8 0 8 0 0 4 8 12 4 8 0 4 4 0 4 8 12 4 12 0
Firing counts: Neuron 1 = 2, Neuron 2 = 0

============================================================
Train '1' epoch
============================================================
BEFORE W1: 2 0 0 2 6 0 15 12 15 0 6 12 2 15 10 2 15 4 4 6 10 2 2 0 2
BEFORE W2: 0 8 12 0 4 8 0 8 0 0 4 8 12 4 8 0 4 4 0 4 8 12 4 12 0
AFTER W1: 2 0 0 2 6 0 15 12 15 0 6 12 2 15 10 2 15 4 4 6 10 2 2 0 2
AFTER W2: 0 12 15 0 2 6 0 12 0 0 2 6 15 2 6 0 2 8 0 2 6 15 8 15 0
Firing counts: Neuron 1 = 0, Neuron 2 = 2

============================================================
Test '0'
============================================================
BEFORE W1: 2 0 0 2 6 0 15 12 15 0 6 12 2 15 10 2 15 4 4 6 10 2 2 0 2
BEFORE W2: 0 12 15 0 2 6 0 12 0 0 2 6 15 2 6 0 2 8 0 2 6 15 8 15 0
AFTER W1: 2 0 0 2 6 0 15 12 15 0 6 12 2 15 10 2 15 4 4 6 10 2 2 0 2
AFTER W2: 0 12 15 0 2 6 0 12 0 0 2 6 15 2 6 0 2 8 0 2 6 15 8 15 0
Firing counts: Neuron 1 = 2, Neuron 2 = 0

============================================================
Test '1'
============================================================
BEFORE W1: 2 0 0 2 6 0 15 12 15 0 6 12 2 15 10 2 15 4 4 6 10 2 2 0 2
BEFORE W2: 0 12 15 0 2 6 0 12 0 0 2 6 15 2 6 0 2 8 0 2 6 15 8 15 0
AFTER W1: 2 0 0 2 6 0 15 12 15 0 6 12 2 15 10 2 15 4 4 6 10 2 2 0 2
AFTER W2: 0 12 15 0 2 6 0 12 0 0 2 6 15 2 6 0 2 8 0 2 6 15 8 15 0
Firing counts: Neuron 1 = 1, Neuron 2 = 2

============================================================
Simulation complete.
============================================================
[?2004h(base) ]0;computer_name: project_path[01;32mcomputer_name[00m:[01;34mproject_path[00m$ [7mmake plot-dynamic TRIPLET_EN=0 SPIKE_WHITE=0000000000001000[27m[7m0[27m[7m00000000010000000001000 SPIKE_BLACK=0000100001000010000100001000010000100010[27m[A
(base) ]0;computer_name: project_path[01;32mcomputer_name[00m:[01;34mproject_path[00m$ make plot-dynamic TRIPLET_EN=0 SPIKE_WHITE=0000000000001000000000000010000000001000 SPIKE_BLACK=0000100001000010000100001000010000100010
[?2004l
python3 viz/plot_weights.py dynamic --make-args W_BITS=4 TRACE_BITS=4 TRIPLET_EN=0 MODE=0 LEAK_EN=1 SYMMETRIC=1 NUM_EPOCHS=1 SPIKE_BLACK=0000100001000010000100001000010000100010 SPIKE_WHITE=0000000000001000000000000010000000001000 OUT_PATH=viz/out.png
Saved to weight_heatmaps_dynamic.png
[?2004h(base) ]0;computer_name: project_path[01;32mcomputer_name[00m:[01;34mproject_path[00m$ make plot-dynamic TRIPLET_EN=0 SPIKE_WHITE=0000000000001000000000000010000000001000 SPIKE_BLACK=0000100001000010000100001000010000100010[A
(base) ]0;computer_name: project_path[01;32mcomputer_name[00m:[01;34mproject_path[00m$ [K

[K[A[C[C[C[C[C[C[C[C[C[C[C[C[C[C[C[C[C[C[C[C[C[C[C[C[C[C[C[C[C[C[C[C[C[C[C[C[C[C[C[C[C[C[C[C[C[C[C[C[C[C[C[C[C[C[C[C[C[C[C[C[C[C[C[C[C[C[C[C[C[C[C[C[C[C[C[C[C[C[C[C[C[C[C[C[C[C[C[C[C[C[C[C[C[C[C[C[C[C[C[C[C[C[C[C[C[C[C[C[C[C[C[C[C[C[C[C[C[C[C[C[7mmake ablation SPIKE_WHITE=000000000000100000000000001000000[27m[7m0[27m[7m001000 SPIKE_BLACK=0000100001000010000100001000010000100010[27m[A
(base) ]0;computer_name: project_path[01;32mcomputer_name[00m:[01;34mproject_path[00m$ make ablation SPIKE_WHITE=0000000000001000000000000010000000001000 SPIKE_BLACK=0000100001000010000100001000010000100010
[?2004l
iverilog -DW_BITS=4 -DTRACE_BITS=4 -DTRIPLET_EN=1 -DMODE=0 -DLEAK_EN=1 -DSYMMETRIC=1 -DNUM_EPOCHS=1 "-DSPIKE_WHITE=40'b0000000000001000000000000010000000001000" "-DSPIKE_BLACK=40'b0000100001000010000100001000010000100010" -o dynamic_snn_ablation rtl/snn_dynamic.v tb/dynamic_snn_tb.v
vvp dynamic_snn_ablation
VCD info: dumpfile dynamic_snn.vcd opened for output.
============================================================
CONFIG: W_BITS=4  TRACE_BITS=4  TRIPLET_EN=1  MODE=0  LEAK_EN=1  SYMMETRIC=1
CONFIG: NUM_STEPS=40 (from pattern length)  NUM_EPOCHS=1
============================================================
============================================================
Train '0' epoch
============================================================
BEFORE W1: 4 0 0 4 8 0 12 8 12 0 8 8 4 12 12 4 12 0 0 8 12 4 4 0 4
BEFORE W2: 0 8 12 0 4 8 0 8 0 0 4 8 12 4 8 0 4 4 0 4 8 12 4 12 0
AFTER W1: 2 0 0 2 6 0 15 12 15 0 6 12 2 15 10 2 15 4 4 6 10 2 2 0 2
AFTER W2: 0 8 12 0 4 8 0 8 0 0 4 8 12 4 8 0 4 4 0 4 8 12 4 12 0
Firing counts: Neuron 1 = 2, Neuron 2 = 0

============================================================
Train '1' epoch
============================================================
BEFORE W1: 2 0 0 2 6 0 15 12 15 0 6 12 2 15 10 2 15 4 4 6 10 2 2 0 2
BEFORE W2: 0 8 12 0 4 8 0 8 0 0 4 8 12 4 8 0 4 4 0 4 8 12 4 12 0
AFTER W1: 2 0 0 2 6 0 15 12 15 0 6 12 2 15 10 2 15 4 4 6 10 2 2 0 2
AFTER W2: 0 12 15 0 2 6 0 12 0 0 2 6 15 2 6 0 2 8 0 2 6 15 8 15 0
Firing counts: Neuron 1 = 0, Neuron 2 = 2

============================================================
Test '0'
============================================================
BEFORE W1: 2 0 0 2 6 0 15 12 15 0 6 12 2 15 10 2 15 4 4 6 10 2 2 0 2
BEFORE W2: 0 12 15 0 2 6 0 12 0 0 2 6 15 2 6 0 2 8 0 2 6 15 8 15 0
AFTER W1: 2 0 0 2 6 0 15 12 15 0 6 12 2 15 10 2 15 4 4 6 10 2 2 0 2
AFTER W2: 0 12 15 0 2 6 0 12 0 0 2 6 15 2 6 0 2 8 0 2 6 15 8 15 0
Firing counts: Neuron 1 = 2, Neuron 2 = 0

============================================================
Test '1'
============================================================
BEFORE W1: 2 0 0 2 6 0 15 12 15 0 6 12 2 15 10 2 15 4 4 6 10 2 2 0 2
BEFORE W2: 0 12 15 0 2 6 0 12 0 0 2 6 15 2 6 0 2 8 0 2 6 15 8 15 0
AFTER W1: 2 0 0 2 6 0 15 12 15 0 6 12 2 15 10 2 15 4 4 6 10 2 2 0 2
AFTER W2: 0 12 15 0 2 6 0 12 0 0 2 6 15 2 6 0 2 8 0 2 6 15 8 15 0
Firing counts: Neuron 1 = 1, Neuron 2 = 2

============================================================
Simulation complete.
============================================================
[?2004h(base) ]0;computer_name: project_path[01;32mcomputer_name[00m:[01;34mproject_path[00m$ [7mmake plot-dynamic SPIKE_WHITE=00000000000010000000000000100[27m[7m0[27m[7m0000001000 SPIKE_BLACK=0000100001000010000100001000010000100010[27m[A
(base) ]0;computer_name: project_path[01;32mcomputer_name[00m:[01;34mproject_path[00m$ make plot-dynamic SPIKE_WHITE=0000000000001000000000000010000000001000 SPIKE_BLACK=0000100001000010000100001000010000100010
[?2004l
python3 viz/plot_weights.py dynamic --make-args W_BITS=4 TRACE_BITS=4 TRIPLET_EN=1 MODE=0 LEAK_EN=1 SYMMETRIC=1 NUM_EPOCHS=1 SPIKE_BLACK=0000100001000010000100001000010000100010 SPIKE_WHITE=0000000000001000000000000010000000001000 OUT_PATH=viz/out.png
Saved to weight_heatmaps_dynamic.png
[?2004h(base) ]0;computer_name: project_path[01;32mcomputer_name[00m:[01;34mproject_path[00m$ [7mmake ablation W_BITS=2 TRACE_BITS=2 TRIPLET_EN=0 LEAK_EN=0 [27m[7mS[27m[7mPIKE_WHITE=0100000000010000000001000000000100000000 SPIKE_BLACK=0100100001001000010010000100100001001000[27m[A
(base) ]0;computer_name: project_path[01;32mcomputer_name[00m:[01;34mproject_path[00m$ make ablation W_BITS=2 TRACE_BITS=2 TRIPLET_EN=0 LEAK_EN=0 SPIKE_WHITE=0100000000010000000001000000000100000000 SPIKE_BLACK=0100100001001000010010000100100001001000[A
(base) ]0;computer_name: project_path[01;32mcomputer_name[00m:[01;34mproject_path[00m$ [K

[K[A[C[C[C[C[C[C[C[C[C[C[C[C[C[C[C[C[C[C[C[C[C[C[C[C[C[C[C[C[C[C[C[C[C[C[C[C[C[C[C[C[C[C[C[C[C[C[C[C[C[C[C[C[C[C[C[C[C[C[C[C[C[C[C[C[C[C[C[C[C[C[C[C[C[C[C[C[C[C[C[C[C[C[C[C[C[C[C[C[C[C[C[C[C[C[C[C[C[C[C[C[C[C[C[C[C[C[C[C[C[C[C[C[C[C[C[C[C[C[C[C[7mmake ablation TRIPLET_EN=0 SPIKE_WHITE=01000000000100000000[27m[7m0[27m[7m1000000000100000000 SPIKE_BLACK=0100100001001000010010000100100001001000[27m[A
(base) ]0;computer_name: project_path[01;32mcomputer_name[00m:[01;34mproject_path[00m$ make ablation TRIPLET_EN=0 SPIKE_WHITE=0100000000010000000001000000000100000000 SPIKE_BLACK=0100100001001000010010000100100001001000
[?2004l
iverilog -DW_BITS=4 -DTRACE_BITS=4 -DTRIPLET_EN=0 -DMODE=0 -DLEAK_EN=1 -DSYMMETRIC=1 -DNUM_EPOCHS=1 "-DSPIKE_WHITE=40'b0100000000010000000001000000000100000000" "-DSPIKE_BLACK=40'b0100100001001000010010000100100001001000" -o dynamic_snn_ablation rtl/snn_dynamic.v tb/dynamic_snn_tb.v
vvp dynamic_snn_ablation
VCD info: dumpfile dynamic_snn.vcd opened for output.
============================================================
CONFIG: W_BITS=4  TRACE_BITS=4  TRIPLET_EN=0  MODE=0  LEAK_EN=1  SYMMETRIC=1
CONFIG: NUM_STEPS=40 (from pattern length)  NUM_EPOCHS=1
============================================================
============================================================
Train '0' epoch
============================================================
BEFORE W1: 4 0 0 4 8 0 12 8 12 0 8 8 4 12 12 4 12 0 0 8 12 4 4 0 4
BEFORE W2: 0 8 12 0 4 8 0 8 0 0 4 8 12 4 8 0 4 4 0 4 8 12 4 12 0
AFTER W1: 6 2 2 6 10 2 15 11 15 2 10 11 6 15 14 6 15 3 3 10 14 6 6 2 6
AFTER W2: 0 8 12 0 4 8 0 8 0 0 4 8 12 4 8 0 4 4 0 4 8 12 4 12 0
Firing counts: Neuron 1 = 3, Neuron 2 = 0

============================================================
Train '1' epoch
============================================================
BEFORE W1: 6 2 2 6 10 2 15 11 15 2 10 11 6 15 14 6 15 3 3 10 14 6 6 2 6
BEFORE W2: 0 8 12 0 4 8 0 8 0 0 4 8 12 4 8 0 4 4 0 4 8 12 4 12 0
AFTER W1: 8 2 2 8 12 4 15 11 15 4 12 13 6 15 15 8 15 3 5 12 15 6 6 2 8
AFTER W2: 2 9 13 2 6 10 2 9 2 2 6 10 13 6 10 2 6 5 2 6 10 13 5 13 2
Firing counts: Neuron 1 = 3, Neuron 2 = 1

============================================================
Test '0'
============================================================
BEFORE W1: 8 2 2 8 12 4 15 11 15 4 12 13 6 15 15 8 15 3 5 12 15 6 6 2 8
BEFORE W2: 2 9 13 2 6 10 2 9 2 2 6 10 13 6 10 2 6 5 2 6 10 13 5 13 2
AFTER W1: 8 2 2 8 12 4 15 11 15 4 12 13 6 15 15 8 15 3 5 12 15 6 6 2 8
AFTER W2: 2 9 13 2 6 10 2 9 2 2 6 10 13 6 10 2 6 5 2 6 10 13 5 13 2
Firing counts: Neuron 1 = 4, Neuron 2 = 0

============================================================
Test '1'
============================================================
BEFORE W1: 8 2 2 8 12 4 15 11 15 4 12 13 6 15 15 8 15 3 5 12 15 6 6 2 8
BEFORE W2: 2 9 13 2 6 10 2 9 2 2 6 10 13 6 10 2 6 5 2 6 10 13 5 13 2
AFTER W1: 8 2 2 8 12 4 15 11 15 4 12 13 6 15 15 8 15 3 5 12 15 6 6 2 8
AFTER W2: 2 9 13 2 6 10 2 9 2 2 6 10 13 6 10 2 6 5 2 6 10 13 5 13 2
Firing counts: Neuron 1 = 4, Neuron 2 = 2

============================================================
Simulation complete.
============================================================
[?2004h(base) ]0;computer_name: project_path[01;32mcomputer_name[00m:[01;34mproject_path[00m$ [7mmake plot-dynamic TRIPLET_EN=0 SPIKE_WHITE=0100000000010000[27m[7m0[27m[7m00001000000000100000000 SPIKE_BLACK=0100100001001000010010000100100001001000[27m[A
(base) ]0;computer_name: project_path[01;32mcomputer_name[00m:[01;34mproject_path[00m$ make plot-dynamic TRIPLET_EN=0 SPIKE_WHITE=0100000000010000000001000000000100000000 SPIKE_BLACK=0100100001001000010010000100100001001000
[?2004l
python3 viz/plot_weights.py dynamic --make-args W_BITS=4 TRACE_BITS=4 TRIPLET_EN=0 MODE=0 LEAK_EN=1 SYMMETRIC=1 NUM_EPOCHS=1 SPIKE_BLACK=0100100001001000010010000100100001001000 SPIKE_WHITE=0100000000010000000001000000000100000000 OUT_PATH=viz/out.png
Saved to weight_heatmaps_dynamic.png
[?2004h(base) ]0;computer_name: project_path[01;32mcomputer_name[00m:[01;34mproject_path[00m$ [7mmake ablation SPIKE_WHITE=010000000001000000000100000000010[27m[7m0[27m[7m000000 SPIKE_BLACK=0100100001001000010010000100100001001000[27m[A
(base) ]0;computer_name: project_path[01;32mcomputer_name[00m:[01;34mproject_path[00m$ make ablation SPIKE_WHITE=0100000000010000000001000000000100000000 SPIKE_BLACK=0100100001001000010010000100100001001000
[?2004l
iverilog -DW_BITS=4 -DTRACE_BITS=4 -DTRIPLET_EN=1 -DMODE=0 -DLEAK_EN=1 -DSYMMETRIC=1 -DNUM_EPOCHS=1 "-DSPIKE_WHITE=40'b0100000000010000000001000000000100000000" "-DSPIKE_BLACK=40'b0100100001001000010010000100100001001000" -o dynamic_snn_ablation rtl/snn_dynamic.v tb/dynamic_snn_tb.v
vvp dynamic_snn_ablation
VCD info: dumpfile dynamic_snn.vcd opened for output.
============================================================
CONFIG: W_BITS=4  TRACE_BITS=4  TRIPLET_EN=1  MODE=0  LEAK_EN=1  SYMMETRIC=1
CONFIG: NUM_STEPS=40 (from pattern length)  NUM_EPOCHS=1
============================================================
============================================================
Train '0' epoch
============================================================
BEFORE W1: 4 0 0 4 8 0 12 8 12 0 8 8 4 12 12 4 12 0 0 8 12 4 4 0 4
BEFORE W2: 0 8 12 0 4 8 0 8 0 0 4 8 12 4 8 0 4 4 0 4 8 12 4 12 0
AFTER W1: 6 2 2 6 10 2 13 9 13 2 10 9 6 13 14 6 13 2 2 10 14 6 6 2 6
AFTER W2: 0 8 12 0 4 8 0 8 0 0 4 8 12 4 8 0 4 4 0 4 8 12 4 12 0
Firing counts: Neuron 1 = 3, Neuron 2 = 0

============================================================
Train '1' epoch
============================================================
BEFORE W1: 6 2 2 6 10 2 13 9 13 2 10 9 6 13 14 6 13 2 2 10 14 6 6 2 6
BEFORE W2: 0 8 12 0 4 8 0 8 0 0 4 8 12 4 8 0 4 4 0 4 8 12 4 12 0
AFTER W1: 8 1 1 8 12 4 15 8 15 4 12 11 5 15 15 8 15 1 4 12 15 5 5 1 8
AFTER W2: 2 9 13 2 6 10 2 9 2 2 6 10 13 6 10 2 6 5 2 6 10 13 5 13 2
Firing counts: Neuron 1 = 2, Neuron 2 = 3

============================================================
Test '0'
============================================================
BEFORE W1: 8 1 1 8 12 4 15 8 15 4 12 11 5 15 15 8 15 1 4 12 15 5 5 1 8
BEFORE W2: 2 9 13 2 6 10 2 9 2 2 6 10 13 6 10 2 6 5 2 6 10 13 5 13 2
AFTER W1: 8 1 1 8 12 4 15 8 15 4 12 11 5 15 15 8 15 1 4 12 15 5 5 1 8
AFTER W2: 2 9 13 2 6 10 2 9 2 2 6 10 13 6 10 2 6 5 2 6 10 13 5 13 2
Firing counts: Neuron 1 = 4, Neuron 2 = 0

============================================================
Test '1'
============================================================
BEFORE W1: 8 1 1 8 12 4 15 8 15 4 12 11 5 15 15 8 15 1 4 12 15 5 5 1 8
BEFORE W2: 2 9 13 2 6 10 2 9 2 2 6 10 13 6 10 2 6 5 2 6 10 13 5 13 2
AFTER W1: 8 1 1 8 12 4 15 8 15 4 12 11 5 15 15 8 15 1 4 12 15 5 5 1 8
AFTER W2: 2 9 13 2 6 10 2 9 2 2 6 10 13 6 10 2 6 5 2 6 10 13 5 13 2
Firing counts: Neuron 1 = 1, Neuron 2 = 3

============================================================
Simulation complete.
============================================================
[?2004h(base) ]0;computer_name: project_path[01;32mcomputer_name[00m:[01;34mproject_path[00m$ [7mmake plot-dynamic SPIKE_WHITE=01000000000100000000010000000[27m[7m0[27m[7m0100000000 SPIKE_BLACK=0100100001001000010010000100100001001000[27m[A
(base) ]0;computer_name: project_path[01;32mcomputer_name[00m:[01;34mproject_path[00m$ make plot-dynamic SPIKE_WHITE=0100000000010000000001000000000100000000 SPIKE_BLACK=0100100001001000010010000100100001001000
[?2004l
python3 viz/plot_weights.py dynamic --make-args W_BITS=4 TRACE_BITS=4 TRIPLET_EN=1 MODE=0 LEAK_EN=1 SYMMETRIC=1 NUM_EPOCHS=1 SPIKE_BLACK=0100100001001000010010000100100001001000 SPIKE_WHITE=0100000000010000000001000000000100000000 OUT_PATH=viz/out.png
Saved to weight_heatmaps_dynamic.png
[?2004h(base) ]0;computer_name: project_path[01;32mcomputer_name[00m:[01;34mproject_path[00m$ [7mmake ablation TRIPLET_EN=0 SPIKE_WHITE=00100000000010000000[27m[7m0[27m[7m0100000000010000000 SPIKE_BLACK=0010010000100100001001000010010000100100[27m[A
(base) ]0;computer_name: project_path[01;32mcomputer_name[00m:[01;34mproject_path[00m$ make ablation TRIPLET_EN=0 SPIKE_WHITE=0010000000001000000000100000000010000000 SPIKE_BLACK=0010010000100100001001000010010000100100
[?2004l
iverilog -DW_BITS=4 -DTRACE_BITS=4 -DTRIPLET_EN=0 -DMODE=0 -DLEAK_EN=1 -DSYMMETRIC=1 -DNUM_EPOCHS=1 "-DSPIKE_WHITE=40'b0010000000001000000000100000000010000000" "-DSPIKE_BLACK=40'b0010010000100100001001000010010000100100" -o dynamic_snn_ablation rtl/snn_dynamic.v tb/dynamic_snn_tb.v
vvp dynamic_snn_ablation
VCD info: dumpfile dynamic_snn.vcd opened for output.
============================================================
CONFIG: W_BITS=4  TRACE_BITS=4  TRIPLET_EN=0  MODE=0  LEAK_EN=1  SYMMETRIC=1
CONFIG: NUM_STEPS=40 (from pattern length)  NUM_EPOCHS=1
============================================================
============================================================
Train '0' epoch
============================================================
BEFORE W1: 4 0 0 4 8 0 12 8 12 0 8 8 4 12 12 4 12 0 0 8 12 4 4 0 4
BEFORE W2: 0 8 12 0 4 8 0 8 0 0 4 8 12 4 8 0 4 4 0 4 8 12 4 12 0
AFTER W1: 6 2 2 6 10 2 15 11 15 2 10 11 6 15 14 6 15 3 3 10 14 6 6 2 6
AFTER W2: 0 8 12 0 4 8 0 8 0 0 4 8 12 4 8 0 4 4 0 4 8 12 4 12 0
Firing counts: Neuron 1 = 3, Neuron 2 = 0

============================================================
Train '1' epoch
============================================================
BEFORE W1: 6 2 2 6 10 2 15 11 15 2 10 11 6 15 14 6 15 3 3 10 14 6 6 2 6
BEFORE W2: 0 8 12 0 4 8 0 8 0 0 4 8 12 4 8 0 4 4 0 4 8 12 4 12 0
AFTER W1: 8 2 2 8 12 4 15 11 15 4 12 13 6 15 15 8 15 3 5 12 15 6 6 2 8
AFTER W2: 2 9 13 2 6 10 2 9 2 2 6 10 13 6 10 2 6 5 2 6 10 13 5 13 2
Firing counts: Neuron 1 = 3, Neuron 2 = 1

============================================================
Test '0'
============================================================
BEFORE W1: 8 2 2 8 12 4 15 11 15 4 12 13 6 15 15 8 15 3 5 12 15 6 6 2 8
BEFORE W2: 2 9 13 2 6 10 2 9 2 2 6 10 13 6 10 2 6 5 2 6 10 13 5 13 2
AFTER W1: 8 2 2 8 12 4 15 11 15 4 12 13 6 15 15 8 15 3 5 12 15 6 6 2 8
AFTER W2: 2 9 13 2 6 10 2 9 2 2 6 10 13 6 10 2 6 5 2 6 10 13 5 13 2
Firing counts: Neuron 1 = 4, Neuron 2 = 0

============================================================
Test '1'
============================================================
BEFORE W1: 8 2 2 8 12 4 15 11 15 4 12 13 6 15 15 8 15 3 5 12 15 6 6 2 8
BEFORE W2: 2 9 13 2 6 10 2 9 2 2 6 10 13 6 10 2 6 5 2 6 10 13 5 13 2
AFTER W1: 8 2 2 8 12 4 15 11 15 4 12 13 6 15 15 8 15 3 5 12 15 6 6 2 8
AFTER W2: 2 9 13 2 6 10 2 9 2 2 6 10 13 6 10 2 6 5 2 6 10 13 5 13 2
Firing counts: Neuron 1 = 4, Neuron 2 = 2

============================================================
Simulation complete.
============================================================
[?2004h(base) ]0;computer_name: project_path[01;32mcomputer_name[00m:[01;34mproject_path[00m$ [7mmake plot-dynamic TRIPLET_EN=0 SPIKE_WHITE=0010000000001000[27m[7m0[27m[7m00000100000000010000000 SPIKE_BLACK=0010010000100100001001000010010000100100[27m[A
(base) ]0;computer_name: project_path[01;32mcomputer_name[00m:[01;34mproject_path[00m$ make plot-dynamic TRIPLET_EN=0 SPIKE_WHITE=0010000000001000000000100000000010000000 SPIKE_BLACK=0010010000100100001001000010010000100100
[?2004l
python3 viz/plot_weights.py dynamic --make-args W_BITS=4 TRACE_BITS=4 TRIPLET_EN=0 MODE=0 LEAK_EN=1 SYMMETRIC=1 NUM_EPOCHS=1 SPIKE_BLACK=0010010000100100001001000010010000100100 SPIKE_WHITE=0010000000001000000000100000000010000000 OUT_PATH=viz/out.png
Saved to weight_heatmaps_dynamic.png
[?2004h(base) ]0;computer_name: project_path[01;32mcomputer_name[00m:[01;34mproject_path[00m$ [7mmake ablation SPIKE_WHITE=001000000000100000000010000000001[27m[7m0[27m[7m000000 SPIKE_BLACK=0010010000100100001001000010010000100100[27m[A
(base) ]0;computer_name: project_path[01;32mcomputer_name[00m:[01;34mproject_path[00m$ make ablation SPIKE_WHITE=0010000000001000000000100000000010000000 SPIKE_BLACK=0010010000100100001001000010010000100100
[?2004l
iverilog -DW_BITS=4 -DTRACE_BITS=4 -DTRIPLET_EN=1 -DMODE=0 -DLEAK_EN=1 -DSYMMETRIC=1 -DNUM_EPOCHS=1 "-DSPIKE_WHITE=40'b0010000000001000000000100000000010000000" "-DSPIKE_BLACK=40'b0010010000100100001001000010010000100100" -o dynamic_snn_ablation rtl/snn_dynamic.v tb/dynamic_snn_tb.v
vvp dynamic_snn_ablation
VCD info: dumpfile dynamic_snn.vcd opened for output.
============================================================
CONFIG: W_BITS=4  TRACE_BITS=4  TRIPLET_EN=1  MODE=0  LEAK_EN=1  SYMMETRIC=1
CONFIG: NUM_STEPS=40 (from pattern length)  NUM_EPOCHS=1
============================================================
============================================================
Train '0' epoch
============================================================
BEFORE W1: 4 0 0 4 8 0 12 8 12 0 8 8 4 12 12 4 12 0 0 8 12 4 4 0 4
BEFORE W2: 0 8 12 0 4 8 0 8 0 0 4 8 12 4 8 0 4 4 0 4 8 12 4 12 0
AFTER W1: 6 2 2 6 10 2 13 9 13 2 10 9 6 13 14 6 13 2 2 10 14 6 6 2 6
AFTER W2: 0 8 12 0 4 8 0 8 0 0 4 8 12 4 8 0 4 4 0 4 8 12 4 12 0
Firing counts: Neuron 1 = 3, Neuron 2 = 0

============================================================
Train '1' epoch
============================================================
BEFORE W1: 6 2 2 6 10 2 13 9 13 2 10 9 6 13 14 6 13 2 2 10 14 6 6 2 6
BEFORE W2: 0 8 12 0 4 8 0 8 0 0 4 8 12 4 8 0 4 4 0 4 8 12 4 12 0
